Lecture 8
…
The Data: Fast Food Entrees

Find the data here.

fastfood <- read_csv("data/fastfood.csv") %>% 
  select(-salad, -X1) %>%  
  distinct(restaurant, item, .keep_all = TRUE)

fastfood

# A tibble: 513 x 16
   restaurant item        calories cal_fat total_fat sat_fat trans_fat
   <chr>      <chr>          <dbl>   <dbl>     <dbl>   <dbl>     <dbl>
 1 Mcdonalds  Artisan Gr…      380      60         7       2       0  
 2 Mcdonalds  Single Bac…      840     410        45      17       1.5
 3 Mcdonalds  Double Bac…     1130     600        67      27       3  
 4 Mcdonalds  Grilled Ba…      750     280        31      10       0.5
 5 Mcdonalds  Crispy Bac…      920     410        45      12       0.5
 6 Mcdonalds  Big Mac          540     250        28      10       1  
 7 Mcdonalds  Cheeseburg…      300     100        12       5       0.5
 8 Mcdonalds  Classic Ch…      510     210        24       4       0  
 9 Mcdonalds  Double Che…      430     190        21      11       1  
10 Mcdonalds  Double Qua…      770     400        45      21       2.5
# … with 503 more rows, and 9 more variables: cholesterol <dbl>,
#   sodium <dbl>, total_carb <dbl>, fiber <dbl>, sugar <dbl>,
#   protein <dbl>, vit_a <dbl>, vit_c <dbl>, calcium <dbl>
…
Counting things is always a good sanity check for your data.

fastfood %>% 
  count(restaurant, item, sort = TRUE)

# A tibble: 513 x 3
   restaurant item                                  n
   <chr>      <chr>                             <int>
 1 Arbys      2 piece Prime-Cut Chicken Tenders     1
 2 Arbys      3 piece Prime-Cut Chicken Tenders     1
 3 Arbys      5 piece Prime-Cut Chicken Tenders     1
 4 Arbys      Arby-Q Sandwich                       1
 5 Arbys      Arby's Melt                           1
 6 Arbys      Beef 'n Cheddar Classic               1
 7 Arbys      Beef 'n Cheddar Mid                   1
 8 Arbys      Bourbon BBQ Brisket Sandwich          1
 9 Arbys      Bourbon BBQ Chicken Sandwich          1
10 Arbys      Bourbon BBQ Steak Sandwich            1
# … with 503 more rows
…
